PSTAT194 CS Section 4
…
head(df)

##   Inverse_transform_generated Base_R_generated
## 1                   2.2947681        0.6563479
## 2                   0.3796815       -1.3550135
## 3                   0.4348319       -4.2639434
## 4                   0.9291624        0.5831675
## 5                   0.3101516       -0.1782877
## 6                  12.8255734       -0.1794691

df %>%
    pivot_longer(everything(), names_to = "method")

## # A tibble: 200,000 x 2
##    method                       value
##    <chr>                        <dbl>
##  1 Inverse_transform_generated  2.29 
##  2 Base_R_generated             0.656
##  3 Inverse_transform_generated  0.380
##  4 Base_R_generated            -1.36 
##  5 Inverse_transform_generated  0.435
##  6 Base_R_generated            -4.26 
##  7 Inverse_transform_generated  0.929
##  8 Base_R_generated             0.583
##  9 Inverse_transform_generated  0.310
## 10 Base_R_generated            -0.178
## #  with 199,990 more rows
…
